{
    "control":[
        { "VTOY_DEFAULT_MENU_MODE": "1" },
        { "VTOY_TREE_VIEW_MENU_STYLE": "1" },
        { "VTOY_FILE_FLT_EFI": "1" },
        { "VTOY_MENU_TIMEOUT": "8" },
        { "VTOY_DEFAULT_SEARCH_ROOT": "/ISO" }
    ],
    "theme":{
        "file": "/ventoy/themes/viper/theme.txt",
        "gfxmode": "1920x1080",
        "ventoy_left": "70%",
        "ventoy_top": "10%",
        "ventoy_color": "#0e0e0f22",
        "fonts":[
            "/ventoy/themes/viper/FiraCode-Medium-17.pf2",
            "/ventoy/themes/viper/FiraCode-Medium-12.pf2",
            "/ventoy/themes/viper/FiraCode-Medium-20.pf2",
            "/ventoy/themes/viper/FiraCode-SemiBold-26.pf2",
            "/ventoy/themes/viper/JetBrainsMono-Medium-12.pf2",
            "/ventoy/themes/viper/JetBrainsMono-Medium-20.pf2",
            "/ventoy/themes/viper/JetBrainsMonoNerdFont-Medium-12.pf2",
            "/ventoy/themes/viper/JetBrainsMonoNerdFont-Medium-17.pf2",
            "/ventoy/themes/viper/JetBrainsMonoNerdFont-Medium-20.pf2",
            "/ventoy/themes/viper/Ubuntu-M-17.pf2",
            "/ventoy/themes/viper/Ubuntu-B-17.pf2"
        ]
    },
    "menu_alias":[
        {
            "dir": "/ISO/Install_OS",
            "alias": "Install_OS"
        },
        {
            "dir": "/ISO/Install_OS/Linux",
            "alias": "OS Linux"
        },
        {
            "dir": "/ISO/Install_OS/Windows",
            "alias": "OS Windows"
        },
        {
            "dir": "/ISO/Multitools",
            "alias": "Multitools"
        },
        {
            "image": "/ISO/Install_OS/Windows/Win11_22H2_English_x64v1.iso",
            "alias": "Win11"
        },
        {
            "image": "/ISO/Install_OS/Windows/Win10_22H2_EnglishInternational_x32v1.iso",
            "alias": "Win10_22h2_x32v1"
        },
        {
            "image": "/ISO/Install_OS/Windows/Win10_22H2_EnglishInternational_x64v1.iso",
            "alias": "Win10_22h2_x64v1"
        },
        {
            "image": "/ISO/Install_OS/Windows/Win11_22H2_EnglishInternational_x64v1.iso",
            "alias": "Win11_22h2_x64v1"
        },
        {
            "image": "/ISO/Install_OS/Windows/Windows_7_SP1_ULTIMATE_x64(7601.24214.180801-1700).iso",
            "alias": "Windows_7_SP1_ULTIMATE_x64"
        },
        {
            "image": "/ISO/Install_OS/Windows/Windows_XP_Pro_SP3_x86.iso",
            "alias": "Windows_XP_Pro_SP3_x86"
        },
        {
            "image": "/ISO/Install_OS/Linux/archlinux-2024.03.01-x86_64.iso",
            "alias": "Ach-Linux"
        },
        {
            "image": "/ISO/Install_OS/Linux/arcolinuxb-wayfire-v24.01.04-x86_64.iso",
            "alias": "ArcoLinuxB_Wayfire-24.01.04"
        },
        {
            "image": "/ISO/Install_OS/Linux/arcolinuxd-v24.02.04-x86_64.iso",
            "alias": "arcolinuxd-v24.02.04-x86_64"
        },
        {
            "image": "/ISO/Install_OS/Linux/Fedora-Cinnamon-Live-x86_64-39-1.5.iso",
            "alias": "Fedora-Cinnamon-Live-x86_64-39-1.5"
        },
        {
            "image": "/ISO/Install_OS/Linux/linuxmint-21.3-cinnamon-64bit.iso",
            "alias": "linuxmint-21.3-cinnamon-64bit"
        },
        {
            "image": "/ISO/Install_OS/Linux/lmde_6_cinnamon_x64.iso",
            "alias": "lmde_6_cinnamon_x64"
        },
        {
            "image": "/ISO/Install_OS/XeroXFCE-2023.07-x86_64.iso",
            "alias": "XeroXFCE-2023.07-x86_64"
        },
        {
            "image": "/ISO/Install_OS/Linux/lmde_6_cinnamon_x86.iso",
            "alias": "lmde_6_cinnamon_x86"
        },
        {
            "image": "/ISO/Install_OS/Linux/linuxmint-21.3-cinnamon-64bit.iso",
            "alias": "Fedora_39_everithing"
        },
        {
            "image": "/ISO/Install_OS/Linux/PeppermintOS-Debian-64.iso",
            "alias": "PeppermintOS_x64"
        },
        {
            "image": "/ISO/Install_OS/Linux/PeppermintOS-Debian-32.iso",
            "alias": "PeppermintOS_x86"
        },
        {
            "image": "/ISO/Multitools/AnkhTech.Win10PE.V7.5.iso",
            "alias": "AnkhTech.Win10PE.V7.5"
        },
        {
            "image": "/ISO/Multitools/DLC_Boot_2019_v3.6_by_bobnbanks.iso",
            "alias": "DLC_Boot_2019_v3.6"
        },
        {
            "image": "/ISO/Multitools/KNOPPIX_V9.1DVD-2021-01-25-EN.iso",
            "alias": "KNOPPIX_V9.1"
        },
        {
            "image": "/ISO/Multitools/HBCD_PE_x64.iso",
            "alias": "HBCD_PE_x64"
        },
        {
            "image": "/ISO/Multitools/HBCD_PE_x86.iso",
            "alias": "HBCD_PE_x86"
        },
        {
            "image": "/ISO/Multitools/ubcd539.iso",
            "alias": "ubcd_x86"
        },
        {
            "image": "/ISO/Multitools/MediCat23/MediCat23.img",
            "alias": "MediCat23 Image"
        },
        {
            "dir": "/ISO/Multitools/MediCat23",
            "alias": "MediCat23 Image"
        }
    ],
    "menu_tip":{
        "top": "97%",
        "color": "#6bffff",
        "tips":[
            {
                "image": "/ISO/Install_OS/Linux/archlinux-2024.03.01-x86_64.iso",
                "tip": "This is the Arch Linux Install ISO from https://www.archlinux.org"
            },
            {
                "image": "/ISO/Install_OS/Linux/arcolinuxb-wayfire-v24.01.04-x86_64.iso",
                "tip": "This is the ArcoLinuxB-Wayfire Install ISO from https://www.arcolinux.info"
            },
            {
                "image": "/ISO/Install_OS/Linux/arcolinuxd-v24.02.04-x86_64.iso",
                "tip": "This is the ArcoLinuxD custom Install ISO from https://www.arcolinux.info"
            },
            {
                "image": "/ISO/Install_OS/Linux/Fedora-Cinnamon-Live-x86_64-39-1.5.iso",
                "tip": "This is the Fedora 39 Cinnamon Live Install ISO from https://fedoraproject.org/"
            },
            {
                "image": "/ISO/Install_OS/Linux/Fedora-Everything-netinst-x86_64-39-1.5.iso",
                "tip": "This is the Fedora 39 Everything Net_Install ISO from https://fedoraproject.org/"
            },
            {
                "image": "/ISO/Install_OS/Linux/linuxmint-21.3-cinnamon-64bit.iso",
                "tip": "This is the Linux Mint Cinnamon 21.3-Virginia Install ISO from https://linuxmint.com/"
            },
            {
                "image": "/ISO/Install_OS/Linux/lmde_6_cinnamon_x64.iso",
                "tip": "This is the Linux Mint Debian Edition( LMDE ) 21.3-Virginia x86_64 Install ISO from https://linuxmint.com/"
            },
            {
                "image": "/ISO/Install_OS/Linux/lmde_6_cinnamon_x86.iso",
                "tip": "This is the Linux Mint Debian Edition( LMDE ) 21.3-Virginia 32bit Install ISO from https://linuxmint.com/"
            },
            {
                "image": "/ISO/Install_OS/Linux/PeppermintOS-Debian-32.iso",
                "tip": "This is the Peppermint OS 32bit Install ISO from https://peppermintos.com/"
            },
            {
                "image": "/ISO/Install_OS/Linux/PeppermintOS-Debian-64.iso",
                "tip": "This is the Peppermint OS 64bit Install ISO from https://peppermintos.com/"
            },
            {
                "image": "/ISO/Install_OS/Linux/XeroXFCE-2023.07-x86_64.iso",
                "tip": "This is the XeroLinux-XFCE Install ISO from xerolinux-steve"
            },
            {
                "image": "/ISO/Install_OS/Windows/Win10_22H2_EnglishInternational_x32v1.iso",
                "tip": "This is the Windows 10 22H2 32bit install ISO"
            },
            {
                "image": "/ISO/Install_OS/Windows/Win10_22H2_EnglishInternational_x64v1.iso",
                "tip": "This is the Windows 10 22H2 64bit install ISO"
            },
            {
                "image": "/ISO/Install_OS/Windows/Win11_22H2_English_x64v1.iso",
                "tip": "This is the Windows 11 22H2 64bit install ISO"
            },
            {
                "image": "/ISO/Install_OS/Windows/Win11_23H2_EnglishInternational_x64.iso",
                "tip": "This is the Windows 11 23H2 64bit install ISO"
            },
            {
                "image": "/ISO/Install_OS/Windows/Windows_7_SP1_ULTIMATE_x64(7601.24214.180801-1700).iso",
                "tip": "This is the Windows 7 Ultimate SP1 64bit install ISO"
            },
            {
                "image": "/ISO/Install_OS/Windows/Windows_7_SP1_ULTIMATE_x86.iso",
                "tip": "This is the Windows 7 Ultimate SP1 32bit install ISO"
            },
            {
                "image": "/ISO/Install_OS/Windows/Windows_XP_Pro_SP3_x86.iso",
                "tip": "This is the Windows XP SP3 32bit install ISO"
            },
            {
                "image": "/ISO/Multitools/AnkhTech.Win10PE.V7.5.iso",
                "tip": "This is the AnkhTech Win10_PE ISO  from https://ankhtech.weebly.com/"
            },
            {
                "image": "/ISO/Multitools/DLC_Boot_2019_v3.6_by_bobnbanks.iso",
                "tip": "This is the ADLC_Boot_PE ISO  from https://dlcboot.com/"
            },
            {
                "image": "/ISO/Multitools/HBCD_PE_x86.iso",
                "tip": "This is the Hirens_BOOT_CD_x86 PE_ISO  from https://www.hirensbootcd.org/download/"
            },
            {
                "image": "/ISO/Multitools/KNOPPIX_V9.1DVD-2021-01-25-EN.iso",
                "tip": "This is the KNOPPIX_DVD  from https://www.knopper.net/knoppix"
            },
            {
                "image": "/ISO/Multitools/ubcd539.iso",
                "tip": "This is the Ultimate_Boo_CD  from https://www.ultimatebootcd.com/download.html"
            },
            {
                "image": "/ISO/Multitools/MediCat23/MediCat23.img",
                "tip": "This is the MediCat live image created from the MediCat bootable usb stick and downloaded from https://medicatusb.com"
            },
            {
                "image": "/ISO/Multitools/HBCD_PE_x64_2023.iso",
                "tip": "This is the Hirens_BOOT_CD_x64 PE_ISO from https://www.hirensbootcd.org/download/"
            }
        ]
    },
    "menu_class":[
        {
            "dir": "/ISO/Install_OS",
            "class": "install_os"
        },
        {
            "dir": "/ISO/Install_OS/Linux",
            "class": "linux"
        },
        {
            "dir": "/ISO/Install_OS/Windows",
            "class": "windows"
        },
        {
            "dir": "/ISO/Multitools",
            "class": "multitools"
        },
        {
            "key": "AnkhTech.Win10PE.V7.5",
            "class": "ankhtech"
        },
        {
            "key": "DLC_Boot_2019_v3.6_by_bobnbanks",
            "class": "dlcboot"
        },
        {
            "key": "HBCD_PE_x86",
            "class": "hirensbootcd"
        },
        {
            "key": "HBCD_PE_x64",
            "class": "hirensbootcd"
        },
        {
            "key": "KNOPPIX_V9.1DVD-2021-01-25-EN",
            "class": "knoppix"
        },
        {
            "key": "ubcd539",
            "class": "ubcd"
        },
        {
            "dir": "/ISO/Multitools/MediCat23",
            "class": "medicat23"
        },
        {
            "key": "MediCat23",
            "class": "medicat23"
        },
        {
            "key": "Win11_22H2_English_x64v1",
            "class": "windows11"
        },
        {
            "key": "Win11_23H2_EnglishInternational_x64",
            "class": "windows11"
        },
        {
            "key": "Win10_22H2_EnglishInternational_x32v1",
            "class": "windows"
        },
        {
            "key": "Win10_22H2_EnglishInternational_x64v1",
            "class": "windows"
        },
        {
            "key": "Windows_7_SP1_ULTIMATE_x64(7601.24214.180801-1700)",
            "class": "windows"
        },
        {
            "key": "Windows_7_SP1_ULTIMATE_x86",
            "class": "windows"
        },
        {
            "key": "Windows_XP_Pro_SP3_x86",
            "class": "windows"
        },
        {
            "key": "archlinux-2024.03.01-x86_64",
            "class": "arch"
        },
        {
            "key": "arcolinuxb-wayfire-v24.01.04-x86_64",
            "class": "arcolinux"
        },
        {
            "key": "arcolinuxd-v24.02.04-x86_64",
            "class": "arcolinux"
        },
        {
            "key": "Fedora-Everything-netinst-x86_64-39-1.5",
            "class": "fedora"
        },
        {
            "key": "Fedora-Cinnamon-Live-x86_64-39-1.5",
            "class": "fedora"
        },
        {
            "key": "PeppermintOS-Debian-64",
            "class": "peppermint"
        },
        {
            "key": "PeppermintOS-Debian-32",
            "class": "peppermint"
        },
        {
            "key": "linuxmint-21.3-cinnamon-64bit",
            "class": "linuxmint"
        },
        {
            "key": "lmde_6_cinnamon_x64",
            "class": "linuxmint"
        },
        {
            "key": "lmde_6_cinnamon_x86",
            "class": "linuxmint"
        },
        {
            "key": "XeroXFCE-2023.07-x86_64",
            "class": "arch"
        }
    ]
}
